source/hercules_examples/Application/motorware/v1.0.3.03/sw/drivers/het/src/32b/hercules/rm48l952/het.vcd
$date
     Jun 12, 2012       10:01:09
$end

$version
              SystemC 2.2.0 --- Aug 17 2009 04:21:18
$end

$timescale
     1 ps
$end

$scope module SystemC $end
$var wire    1  aaa  HETCLK       $end
$var wire    1  aab  LOOP_RESOLUTION_CLK       $end
$var wire    1  aac  HIGH_RESOLUTION_CLK       $end
$var wire   32  aad  A [31:0]  $end
$var wire   32  aae  B [31:0]  $end
$var wire   32  aaf  T [31:0]  $end
$var wire    1  aag  Z       $end
$var wire    1  aah  X       $end
$var wire    1  aai  SWT       $end
$var wire    1  aaj  NAF       $end
$var wire    1  aak  AF       $end
$var wire    1  aal  DCF       $end
$var wire    1  aam  GPF       $end
$var wire   32  aan  Loop_Count [31:0]  $end
$upscope $end
$enddefinitions  $end

$comment
All initial values are dumped below at time 0 sec = 0 timescale units.
$end

$dumpvars
1aaa
0aab
1aac
b0 aad
b0 aae
b0 aaf
0aag
0aah
0aai
0aaj
0aak
0aal
0aam
b0 aan
$end

#5000
0aaa
0aac

#10000
1aaa
1aac

#15000
0aaa
0aac

#20000
1aaa
1aac

#25000
0aaa
0aac

#30000
1aaa
1aac

#35000
0aaa
0aac

#40000
1aaa
1aac

#45000
0aaa
0aac

#50000
1aaa
1aac

#55000
0aaa
0aac

#60000
1aaa
1aac

#65000
0aaa
0aac

#70000
1aaa
1aac

#75000
0aaa
0aac

#80000
1aaa
1aac

#85000
0aaa
0aac

#90000
1aaa
1aac

#95000
0aaa
0aac

#100000
1aaa
1aac

#105000
0aaa
0aac

#110000
1aaa
1aac

#115000
0aaa
0aac

#120000
1aaa
1aac

#125000
0aaa
0aac

#130000
1aaa
1aac

#135000
0aaa
0aac

#140000
1aaa
1aac

#145000
0aaa
0aac

#150000
1aaa
1aac

#155000
0aaa
0aac

#160000
1aaa
1aac

#165000
0aaa
0aac

#170000
1aaa
1aac

#175000
0aaa
0aac

#180000
1aaa
1aac

#185000
0aaa
0aac

#190000
1aaa
1aac

#195000
0aaa
0aac

#200000
1aaa
1aac

#205000
0aaa
0aac

#210000
1aaa
1aac

#215000
0aaa
0aac

#220000
1aaa
1aac

#225000
0aaa
0aac

#230000
1aaa
1aac

#235000
0aaa
0aac

#240000
1aaa
1aac

#245000
0aaa
0aac

#250000
1aaa
1aac

#255000
0aaa
0aac

#260000
1aaa
1aac

#265000
0aaa
0aac

#270000
1aaa
1aac

#275000
0aaa
0aac

#280000
1aaa
1aac

#285000
0aaa
0aac

#290000
1aaa
1aac

#295000
0aaa
0aac

#300000
1aaa
1aac

#305000
0aaa
0aac

#310000
1aaa
1aac

#315000
0aaa
0aac

#320000
1aaa
1aac

#325000
0aaa
0aac

#330000
1aaa
1aac

#335000
0aaa
0aac

#340000
1aaa
1aac

#345000
0aaa
0aac

#350000
1aaa
1aac

#355000
0aaa
0aac

#360000
1aaa
1aac

#365000
0aaa
0aac

#370000
1aaa
1aac

#375000
0aaa
0aac

#380000
1aaa
1aac

#385000
0aaa
0aac

#390000
1aaa
1aac

#395000
0aaa
0aac

#400000
1aaa
1aac

#405000
0aaa
0aac

#410000
1aaa
1aac

#415000
0aaa
0aac

#420000
1aaa
1aac

#425000
0aaa
0aac

#430000
1aaa
1aac

#435000
0aaa
0aac

#440000
1aaa
1aac

#445000
0aaa
0aac

#450000
1aaa
1aac

#455000
0aaa
0aac

#460000
1aaa
1aac

#465000
0aaa
0aac

#470000
1aaa
1aac

#475000
0aaa
0aac

#480000
1aaa
1aac

#485000
0aaa
0aac

#490000
1aaa
1aac

#495000
0aaa
0aac

#500000
1aaa
1aac

#505000
0aaa
0aac

#510000
1aaa
1aac

#515000
0aaa
0aac

#520000
1aaa
1aac

#525000
0aaa
0aac

#530000
1aaa
1aac

#535000
0aaa
0aac

#540000
1aaa
1aac

#545000
0aaa
0aac

#550000
1aaa
1aac

#555000
0aaa
0aac

#560000
1aaa
1aac

#565000
0aaa
0aac

#570000
1aaa
1aac

#575000
0aaa
0aac

#580000
1aaa
1aac

#585000
0aaa
0aac

#590000
1aaa
1aac

#595000
0aaa
0aac

#600000
1aaa
1aac

#605000
0aaa
0aac

#610000
1aaa
1aac

#615000
0aaa
0aac

#620000
1aaa
1aac

#625000
0aaa
0aac

#630000
1aaa
1aab
1aac

#635000
0aaa
0aac

#640000
1aaa
0aab
1aac
1aag
b1 aan

#645000
0aaa
0aac

#650000
1aaa
1aac

#655000
0aaa
0aac

#660000
1aaa
1aac

#665000
0aaa
0aac

#670000
1aaa
1aac

#675000
0aaa
0aac

#680000
1aaa
1aac

#685000
0aaa
0aac

#690000
1aaa
1aac
b11111111111111111111111110000000 aaf

#695000
0aaa
0aac

#700000
1aaa
1aac
b0 aaf

#705000
0aaa
0aac

#710000
1aaa
1aac

#715000
0aaa
0aac

#720000
1aaa
1aac

#725000
0aaa
0aac

#730000
1aaa
1aac

#735000
0aaa
0aac

#740000
1aaa
1aac

#745000
0aaa
0aac

#750000
1aaa
1aac

#755000
0aaa
0aac

#760000
1aaa
1aac

#765000
0aaa
0aac

#770000
1aaa
1aac

#775000
0aaa
0aac

#780000
1aaa
1aac

#785000
0aaa
0aac

#790000
1aaa
1aac

#795000
0aaa
0aac

#800000
1aaa
1aac

#805000
0aaa
0aac

#810000
1aaa
1aac

#815000
0aaa
0aac

#820000
1aaa
1aac

#825000
0aaa
0aac

#830000
1aaa
1aac

#835000
0aaa
0aac

#840000
1aaa
1aac

#845000
0aaa
0aac

#850000
1aaa
1aac

#855000
0aaa
0aac

#860000
1aaa
1aac

#865000
0aaa
0aac

#870000
1aaa
1aac

#875000
0aaa
0aac

#880000
1aaa
1aac

#885000
0aaa
0aac

#890000
1aaa
1aac

#895000
0aaa
0aac

#900000
1aaa
1aac

#905000
0aaa
0aac

#910000
1aaa
1aac

#915000
0aaa
0aac

#920000
1aaa
1aac

#925000
0aaa
0aac

#930000
1aaa
1aac

#935000
0aaa
0aac

#940000
1aaa
1aac

#945000
0aaa
0aac

#950000
1aaa
1aac

#955000
0aaa
0aac

#960000
1aaa
1aac

#965000
0aaa
0aac

#970000
1aaa
1aac

#975000
0aaa
0aac

#980000
1aaa
1aac

#985000
0aaa
0aac

#990000
1aaa
1aac

#995000
0aaa
0aac

#1000000
1aaa
1aac

#1005000
0aaa
0aac

#1010000
1aaa
1aac

#1015000
0aaa
0aac

#1020000
1aaa
1aac

#1025000
0aaa
0aac

#1030000
1aaa
1aac

#1035000
0aaa
0aac

#1040000
1aaa
1aac

#1045000
0aaa
0aac

#1050000
1aaa
1aac

#1055000
0aaa
0aac

#1060000
1aaa
1aac

#1065000
0aaa
0aac

#1070000
1aaa
1aac

#1075000
0aaa
0aac

#1080000
1aaa
1aac

#1085000
0aaa
0aac

#1090000
1aaa
1aac

#1095000
0aaa
0aac

#1100000
1aaa
1aac

#1105000
0aaa
0aac

#1110000
1aaa
1aac

#1115000
0aaa
0aac

#1120000
1aaa
1aac

#1125000
0aaa
0aac

#1130000
1aaa
1aac

#1135000
0aaa
0aac

#1140000
1aaa
1aac

#1145000
0aaa
0aac

#1150000
1aaa
1aac

#1155000
0aaa
0aac

#1160000
1aaa
1aac

#1165000
0aaa
0aac

#1170000
1aaa
1aac

#1175000
0aaa
0aac

#1180000
1aaa
1aac

#1185000
0aaa
0aac

#1190000
1aaa
1aac

#1195000
0aaa
0aac

#1200000
1aaa
1aac

#1205000
0aaa
0aac

#1210000
1aaa
1aac

#1215000
0aaa
0aac

#1220000
1aaa
1aac

#1225000
0aaa
0aac

#1230000
1aaa
1aac

#1235000
0aaa
0aac

#1240000
1aaa
1aac

#1245000
0aaa
0aac

#1250000
1aaa
1aac

#1255000
0aaa
0aac

#1260000
1aaa
1aac

#1265000
0aaa
0aac

#1270000
1aaa
1aab
1aac

#1275000
0aaa
0aac

#1280000
1aaa
0aab
1aac
b10 aan

#1285000
0aaa
0aac

#1290000
1aaa
1aac

#1295000
0aaa
0aac

#1300000
1aaa
1aac

#1305000
0aaa
0aac

#1310000
1aaa
1aac

#1315000
0aaa
0aac

#1320000
1aaa
1aac

#1325000
0aaa
0aac

#1330000
1aaa
1aac
b11111111111111111111111110000000 aaf

#1335000
0aaa
0aac

#1340000
1aaa
1aac
b0 aaf

#1345000
0aaa
0aac

#1350000
1aaa
1aac

#1355000
0aaa
0aac

#1360000
1aaa
1aac

#1365000
0aaa
0aac

#1370000
1aaa
1aac

#1375000
0aaa
0aac

#1380000
1aaa
1aac

#1385000
0aaa
0aac

#1390000
1aaa
1aac

#1395000
0aaa
0aac

#1400000
1aaa
1aac

#1405000
0aaa
0aac

#1410000
1aaa
1aac

#1415000
0aaa
0aac

#1420000
1aaa
1aac

#1425000
0aaa
0aac

#1430000
1aaa
1aac

#1435000
0aaa
0aac

#1440000
1aaa
1aac

#1445000
0aaa
0aac

#1450000
1aaa
1aac

#1455000
0aaa
0aac

#1460000
1aaa
1aac

#1465000
0aaa
0aac

#1470000
1aaa
1aac

#1475000
0aaa
0aac

#1480000
1aaa
1aac

#1485000
0aaa
0aac

#1490000
1aaa
1aac

#1495000
0aaa
0aac

#1500000
1aaa
1aac

#1505000
0aaa
0aac

#1510000
1aaa
1aac

#1515000
0aaa
0aac

#1520000
1aaa
1aac

#1525000
0aaa
0aac

#1530000
1aaa
1aac

#1535000
0aaa
0aac

#1540000
1aaa
1aac

#1545000
0aaa
0aac

#1550000
1aaa
1aac

#1555000
0aaa
0aac

#1560000
1aaa
1aac

#1565000
0aaa
0aac

#1570000
1aaa
1aac

#1575000
0aaa
0aac

#1580000
1aaa
1aac

#1585000
0aaa
0aac

#1590000
1aaa
1aac

#1595000
0aaa
0aac

#1600000
1aaa
1aac

#1605000
0aaa
0aac

#1610000
1aaa
1aac

#1615000
0aaa
0aac

#1620000
1aaa
1aac

#1625000
0aaa
0aac

#1630000
1aaa
1aac

#1635000
0aaa
0aac

#1640000
1aaa
1aac

#1645000
0aaa
0aac

#1650000
1aaa
1aac

#1655000
0aaa
0aac

#1660000
1aaa
1aac

#1665000
0aaa
0aac

#1670000
1aaa
1aac

#1675000
0aaa
0aac

#1680000
1aaa
1aac

#1685000
0aaa
0aac

#1690000
1aaa
1aac

#1695000
0aaa
0aac

#1700000
1aaa
1aac

#1705000
0aaa
0aac

#1710000
1aaa
1aac

#1715000
0aaa
0aac

#1720000
1aaa
1aac

#1725000
0aaa
0aac

#1730000
1aaa
1aac

#1735000
0aaa
0aac

#1740000
1aaa
1aac

#1745000
0aaa
0aac

#1750000
1aaa
1aac

#1755000
0aaa
0aac

#1760000
1aaa
1aac

#1765000
0aaa
0aac

#1770000
1aaa
1aac

#1775000
0aaa
0aac

#1780000
1aaa
1aac

#1785000
0aaa
0aac

#1790000
1aaa
1aac

#1795000
0aaa
0aac

#1800000
1aaa
1aac

#1805000
0aaa
0aac

#1810000
1aaa
1aac

#1815000
0aaa
0aac

#1820000
1aaa
1aac

#1825000
0aaa
0aac

#1830000
1aaa
1aac

#1835000
0aaa
0aac

#1840000
1aaa
1aac

#1845000
0aaa
0aac

#1850000
1aaa
1aac

#1855000
0aaa
0aac

#1860000
1aaa
1aac

#1865000
0aaa
0aac

#1870000
1aaa
1aac

#1875000
0aaa
0aac

#1880000
1aaa
1aac

#1885000
0aaa
0aac

#1890000
1aaa
1aac

#1895000
0aaa
0aac

#1900000
1aaa
1aac

#1905000
0aaa
0aac

#1910000
1aaa
1aab
1aac

#1915000
0aaa
0aac

#1920000
1aaa
0aab
1aac
b11 aan

#1925000
0aaa
0aac

#1930000
1aaa
1aac

#1935000
0aaa
0aac

#1940000
1aaa
1aac

#1945000
0aaa
0aac

#1950000
1aaa
1aac

#1955000
0aaa
0aac

#1960000
1aaa
1aac

#1965000
0aaa
0aac

#1970000
1aaa
1aac
b11111111111111111111111110000000 aaf

#1975000
0aaa
0aac

#1980000
1aaa
1aac
b0 aaf

